<?xml version="1.0" encoding="utf-8"?>
<!-- Generator: Adobe Illustrator 16.0.0, SVG Export Plug-In . SVG Version: 6.00 Build 0)  -->
<!DOCTYPE svg PUBLIC "-//W3C//DTD SVG 1.1//EN" "http://www.w3.org/Graphics/SVG/1.1/DTD/svg11.dtd">
<svg version="1.1" id="Layer_1" xmlns="http://www.w3.org/2000/svg" xmlns:xlink="http://www.w3.org/1999/xlink" x="0px" y="0px"
	 width="255px" height="370px" viewBox="0 0 255 370" enable-background="new 0 0 255 370" xml:space="preserve">
<rect x="-0.5" y="0.5" fill="#EEEEEE" stroke="#EEEEEE" stroke-miterlimit="10" width="255" height="370"/>
</svg>
