<?xml version="1.0" encoding="UTF-8" standalone="no"?>
<svg width="1500px" height="1150px" viewBox="0 0 1500 1150" version="1.1" xmlns="http://www.w3.org/2000/svg" xmlns:xlink="http://www.w3.org/1999/xlink">
    <!-- Generator: Sketch 3.8.3 (29802) - http://www.bohemiancoding.com/sketch -->
    <title>Transparency-Background</title>
    <desc>Created with Sketch.</desc>
    <defs></defs>
    <g id="Page-1" stroke="none" stroke-width="1" fill="none" fill-rule="evenodd">
        <rect id="Rectangle-1" fill="#BDE6F8" x="0" y="0" width="1500" height="1150"></rect>
        <path d="M442.623952,401.694293 C442.623951,399.1642 400.040651,373.899003 453.53216,322.566255 C490.469854,296.482057 518.653123,316.751528 518.653123,316.751528 C569.81178,361.881569 540.755214,342.281579 550.711219,348.814599 C524.071587,378.589284 515.235951,393.293537 495.886651,407.344874 C484.048456,412.643604 466.884291,415.485896 442.623952,401.694293 Z M690.025578,672.292903 C690.025579,674.822996 732.608879,700.088192 679.11737,751.420941 C642.179676,777.505139 613.996407,757.235668 613.996407,757.235668 C562.83775,712.105627 591.894316,731.705617 581.93831,725.172597 C608.577942,695.397912 617.413579,680.693658 636.762879,666.642322 C648.601074,661.343592 665.765239,658.5013 690.025578,672.292903 Z M435.405061,660.823683 C432.874969,660.823684 407.609772,703.406984 356.277023,649.915474 C330.192825,612.977781 350.462297,584.794512 350.462297,584.794512 C395.592338,533.635855 375.992348,562.692421 382.525367,552.736415 C412.300053,579.376047 427.004306,588.211684 441.055643,607.560984 C446.354373,619.399179 449.196665,636.563344 435.405061,660.823683 Z M701.494798,409.481144 C704.024891,409.481143 729.290087,366.897843 780.622836,420.389352 C806.707034,457.327046 786.437563,485.510315 786.437563,485.510315 C741.307522,536.668972 760.907512,507.612406 754.374492,517.568411 C724.599807,490.928779 709.895553,482.093143 695.844217,462.743843 C690.545487,450.905648 687.703195,433.741483 701.494798,409.481144 Z M483.789577,436.276831 C483.789577,436.276831 490.836558,435.355423 503.483553,424.973929 C516.130549,414.592434 601.448004,330.909807 601.448004,330.909807 C601.448004,330.909807 642.90242,278.132364 690.305724,330.587762 C737.709027,383.043159 730.364605,379.283724 730.364605,379.283724 C730.364605,379.283724 711.218562,377.991068 703.874127,387.549559 C696.529691,397.10805 637.521572,450.314884 637.521572,450.314884 C637.521572,450.314884 598.632341,489.776642 517.915217,466.025784 C481.463693,450.314881 483.789577,436.276831 483.789577,436.276831 Z M461.919378,620.486877 C461.919378,620.486877 460.997971,613.439896 450.616476,600.7929 C440.234982,588.145905 356.552354,502.82845 356.552354,502.82845 C356.552354,502.82845 303.774911,461.374034 356.230309,413.97073 C408.685707,366.567426 404.926271,373.911849 404.926271,373.911849 C404.926271,373.911849 403.633615,393.057891 413.192106,400.402327 C422.750597,407.746763 475.957431,466.754881 475.957431,466.754881 C475.957431,466.754881 515.41919,505.644113 491.668331,586.361237 C475.957429,622.812761 461.919378,620.486877 461.919378,620.486877 Z M669.080622,453.190881 C669.080622,453.190881 670.002029,460.237862 680.383524,472.884858 C690.765018,485.531854 774.447646,570.849309 774.447646,570.849309 C774.447646,570.849309 827.225089,612.303724 774.769691,659.707028 C722.314293,707.110332 726.073729,699.765909 726.073729,699.765909 C726.073729,699.765909 727.366385,680.619867 717.807894,673.275431 C708.249403,665.930995 655.042569,606.922877 655.042569,606.922877 C655.042569,606.922877 615.58081,568.033645 639.331669,487.316522 C655.042571,450.864997 669.080622,453.190881 669.080622,453.190881 Z M649.688772,639.878727 C649.688772,639.878727 642.641791,640.800134 629.994795,651.181629 C617.3478,661.563123 532.030345,745.245751 532.030345,745.245751 C532.030345,745.245751 490.575929,798.023194 443.172625,745.567796 C395.769321,693.112398 403.113744,696.871834 403.113744,696.871834 C403.113744,696.871834 422.259786,698.16449 429.604222,688.605999 C436.948658,679.047508 495.956776,625.840674 495.956776,625.840674 C495.956776,625.840674 534.846008,586.378915 615.563132,610.129774 C652.014656,625.840676 649.688772,639.878727 649.688772,639.878727 Z" id="Combined-Shape" fill="#C6EAF9"></path>
        <path d="M446.5,10.5 L448,12" id="Line" stroke="#979797" stroke-linecap="square"></path>
    </g>
</svg>